O~~~~~~~~                           O~~   O~~              O~~                              O~~           
O~~        O~                       O~~  O~~               O~~                              O~~           
O~~            O~~~~     O~~        O~~ O~~        O~~     O~~          O~~        O~~      O~~    O~~    
O~~~~~~   O~~ O~~      O~~  O~~     O~ O~        O~   O~~  O~~ O~~    O~~  O~~   O~~  O~~   O~~  O~~  O~~ 
O~~       O~~   O~~~  O~~   O~~     O~~  O~~    O~~~~~ O~~ O~~   O~~ O~~    O~~ O~~    O~~  O~~ O~~   O~~ 
O~~       O~~     O~~ O~~   O~~     O~~   O~~   O~         O~~   O~~  O~~  O~~   O~~  O~~   O~~ O~~   O~~ 
O~~       O~~ O~~ O~~   O~~ O~~~    O~~     O~~   O~~~~    O~~ O~~      O~~        O~~     O~~~   O~~ O~~~

 _______  __       _______.     ___          __  ___  _______ .______     ______     ______    __          ___     
|   ____||  |     /       |    /   \        |  |/  / |   ____||   _  \   /  __  \   /  __  \  |  |        /   \    
|  |__   |  |    |   (----`   /  ^  \       |  '  /  |  |__   |  |_)  | |  |  |  | |  |  |  | |  |       /  ^  \   
|   __|  |  |     \   \      /  /_\  \      |    <   |   __|  |   _  <  |  |  |  | |  |  |  | |  |      /  /_\  \  
|  |     |  | .----)   |    /  _____  \     |  .  \  |  |____ |  |_)  | |  `--'  | |  `--'  | |  `----./  _____  \ 
|__|     |__| |_______/    /__/     \__\    |__|\__\ |_______||______/   \______/   \______/  |_______/__/     \__\
                                                                                                                   
      ___                       ___           ___     
     /\__\                     /\__\         /\  \    
    /:/ _/_       ___         /:/ _/_       /::\  \   
   /:/ /\__\     /\__\       /:/ /\  \     /:/\:\  \  
  /:/ /:/  /    /:/__/      /:/ /::\  \   /:/ /::\  \ 
 /:/_/:/  /    /::\  \     /:/_/:/\:\__\ /:/_/:/\:\__\
 \:\/:/  /     \/\:\  \__  \:\/:/ /:/  / \:\/:/  \/__/
  \::/__/       ~~\:\/\__\  \::/ /:/  /   \::/__/     
   \:\  \          \::/  /   \/_/:/  /     \:\  \     
    \:\__\         /:/  /      /:/  /       \:\__\    
     \/__/         \/__/       \/__/         \/__/    




oooooooooooo  o8o                    
`888'     `8  `"'                    
 888         oooo   .oooo.o  .oooo.  
 888oooo8    `888  d88(  "8 `P  )88b 
 888    "     888  `"Y88b.   .oP"888 
 888          888  o.  )88b d8(  888 
o888o        o888o 8""888P' `Y888""8o


 _______ _____ _______ _______
 |______   |   |______ |_____|
 |       __|__ ______| |     |
                              

________________________________________
/~~~~~~~~\_/~~~~\__/~~~~~~\___/~~~~~~\__
/~~\________/~~\__/~~\_______/~~\__/~~\_
/~~~~~~\____/~~\___/~~~~~~\__/~~~~~~~~\_
/~~\________/~~\________/~~\_/~~\__/~~\_
/~~\_______/~~~~\__/~~~~~~\__/~~\__/~~\_
________________________________________



ooooooo__oo____________________oo____oo_________oo______________________ooo___________
oo____________oooo___ooooo_____oo___oo___ooooo__oooooo___ooooo___ooooo___oo____ooooo__
oooo_____oo__oo___o_oo___oo____oo__oo___oo____o_oo___oo_oo___oo_oo___oo__oo___oo___oo_
oo_______oo____oo___oo___oo____oooooo___ooooooo_oo___oo_oo___oo_oo___oo__oo___oo___oo_
oo_______oo__o___oo_oo___oo____oo___oo__oo______oo___oo_oo___oo_oo___oo__oo___oo___oo_
oo______oooo__oooo___oooo_o____oo____oo__ooooo__oooooo___ooooo___ooooo__ooooo__oooo_o_
______________________________________________________________________________________



oo____oo_________oo______________________ooo___________
oo___oo___ooooo__oooooo___ooooo___ooooo___oo____ooooo__
oo__oo___oo____o_oo___oo_oo___oo_oo___oo__oo___oo___oo_
oooooo___ooooooo_oo___oo_oo___oo_oo___oo__oo___oo___oo_
oo___oo__oo______oo___oo_oo___oo_oo___oo__oo___oo___oo_
oo____oo__ooooo__oooooo___ooooo___ooooo__ooooo__oooo_o_
_______________________________________________________


O~~   O~~            O~~                           O~~          
O~~  O~~             O~~                           O~~          
O~~ O~~       O~~    O~~         O~~       O~~     O~~   O~~    
O~ O~       O~   O~~ O~~ O~~   O~~  O~~  O~~  O~~  O~~ O~~  O~~ 
O~~  O~~   O~~~~~ O~~O~~   O~~O~~    O~~O~~    O~~ O~~O~~   O~~ 
O~~   O~~  O~        O~~   O~~ O~~  O~~  O~~  O~~  O~~O~~   O~~ 
O~~     O~~  O~~~~   O~~ O~~     O~~       O~~    O~~~  O~~ O~~~
                                                                



